{
  "ItemType": 6,
  "Id": 17,
  "Name": "$f1_Scout",
  "Faction": 1,
  "IconImage": "f1s1",
  "IconScale": 0.5,
  "ModelImage": "f1s1",
  "ModelScale": 1.0,
  "EnginePosition": {
    "x": -0.8
  },
  "EngineColor": "#40FFF096",
  "EngineSize": 0.15,
  "BuiltinDevices": [],
  "Layout": "0004000001410000141000222220122222101555100005000",
  "Barrels": [
    {
      "Position": {
        "x": 1.0
      },
      "WeaponClass": "C"
    }
  ]
}