{
  "ItemType": 6,
  "Id": 49,
  "Name": "$f6_Battleship2",
  "Faction": 6,
  "SizeClass": 3,
  "IconImage": "f6s5",
  "IconScale": 1.0,
  "ModelImage": "f6s5",
  "ModelScale": 2.0,
  "EnginePosition": {
    "x": -0.7
  },
  "EngineColor": "#30FFAE23",
  "EngineSize": 0.4,
  "Regeneration": true,
  "BuiltinDevices": [],
  "Layout": "000000121000000000000222000000000000222000000000000222000000000000121000000000000020000000000000121000000000000222000000000000222000000000000222000000444132222231444444132252231444044115555511440000000555000000000000050000000",
  "Barrels": [
    {
      "Position": {
        "x": -0.4,
        "y": 0.7
      },
      "Rotation": 10.0,
      "WeaponClass": "S"
    },
    {
      "Position": {
        "x": -0.4,
        "y": -0.7
      },
      "Rotation": -10.0,
      "WeaponClass": "S"
    }
  ]
}