{
  "ItemType": 6,
  "Id": 78,
  "Name": "$fn_Cruiser2",
  "SizeClass": 2,
  "IconImage": "fns9",
  "IconScale": 1.0,
  "ModelImage": "fns9",
  "ModelScale": 2.0,
  "EnginePosition": {
    "x": -0.95
  },
  "EngineColor": "#40FFF096",
  "EngineSize": 0.15,
  "BuiltinDevices": [],
  "Layout": "0000010010000000000100100000000001001000000000010010000000000144100000000001441000000000014410000000000244200000000022222200000012222222210000112222221100001222552221000000255552000000000555500000",
  "Barrels": [
    {
      "Position": {
        "x": 0.3
      }
    }
  ]
}