{
  "ItemType": 4,
  "Id": 10090,
  "AmmunitionClass": 22,
  "DamageType": 1,
  "Size": 1.0,
  "Damage": 400.0,
  "Range": 4.0,
  "LifeTime": 0.1,
  "EnergyCost": 10.0,
  "Color": "#FF0000",
  "FireSound": "*flux_04",
  "HitEffectPrefab": "FlashAdditive",
  "BulletPrefab": "EnergyBeam"
}