{
  "ItemType": 1,
  "Id": 14,
  "Name": "DroneBay_L_1",
  "DisplayCategory": 5,
  "ComponentStatsId": 2,
  "Faction": 2,
  "Icon": "dronebay1",
  "Color": "#C0C0C0",
  "Layout": "1110111011101110",
  "CellType": "1",
  "WeaponSlotType": "",
  "DroneBayId": 1,
  "DroneId": 40,
  "PossibleModifications": [
    17,
    18,
    19,
    20,
    1,
    2
  ]
}