{
  "ItemType": 1,
  "Id": 204,
  "Name": "$DroneBay_L_11",
  "DisplayCategory": 5,
  "Availability": 1,
  "ComponentStatsId": 2,
  "Faction": 1,
  "Level": 25,
  "Icon": "dronebay3",
  "Color": "#C0FFFF",
  "Layout": "0000011111111111111100000",
  "CellType": "1",
  "WeaponSlotType": "",
  "DroneBayId": 3,
  "DroneId": 182,
  "PossibleModifications": [
    17,
    18,
    19,
    20,
    1,
    2
  ]
}