{
  "ItemType": 1,
  "Id": 34,
  "Name": "$DroneBay_M_22",
  "DisplayCategory": 5,
  "Availability": 1,
  "ComponentStatsId": 2,
  "Faction": 2,
  "Level": 75,
  "Icon": "dronebay2",
  "Color": "#FFC0C0",
  "Layout": "1110111011101100",
  "CellType": "1",
  "WeaponSlotType": "",
  "DroneBayId": 2,
  "DroneId": 184,
  "PossibleModifications": [
    17,
    18,
    19,
    20,
    1,
    2
  ]
}