{
  "ItemType": 1,
  "Id": 206,
  "Name": "$DroneBay_L_22",
  "DisplayCategory": 5,
  "Availability": 1,
  "ComponentStatsId": 2,
  "Faction": 2,
  "Level": 75,
  "Icon": "dronebay3",
  "Color": "#FFC0C0",
  "Layout": "0000011111111111111100000",
  "CellType": "1",
  "WeaponSlotType": "",
  "DroneBayId": 3,
  "DroneId": 184,
  "PossibleModifications": [
    17,
    18,
    19,
    20,
    1,
    2
  ]
}