{
  "ItemType": 1,
  "Id": 32,
  "Name": "$DroneBay_M_11",
  "DisplayCategory": 5,
  "Availability": 1,
  "ComponentStatsId": 2,
  "Faction": 1,
  "Level": 25,
  "Icon": "dronebay2",
  "Color": "#C0FFFF",
  "Layout": "1110111011101100",
  "CellType": "1",
  "WeaponSlotType": "",
  "DroneBayId": 2,
  "DroneId": 182,
  "PossibleModifications": [
    17,
    18,
    19,
    20,
    1,
    2
  ]
}