{
  "ItemType": 1,
  "Id": 54,
  "Name": "$EcmJammer",
  "DisplayCategory": 6,
  "Availability": 1,
  "ComponentStatsId": 3,
  "Faction": 7,
  "Level": 25,
  "Icon": "jammer",
  "Color": "#C0C0C0",
  "Layout": "1100",
  "CellType": "2",
  "DeviceId": 4,
  "WeaponSlotType": "",
  "PossibleModifications": [
    6,
    2,
    1
  ]
}