{
  "ItemType": 1,
  "Id": 67,
  "Name": "$FuelCell_S",
  "DisplayCategory": 3,
  "Availability": 1,
  "ComponentStatsId": 67,
  "Faction": -1,
  "Icon": "fueltank11",
  "Color": "#FFFFFF",
  "Layout": "1",
  "CellType": "",
  "WeaponSlotType": "",
  "PossibleModifications": [
    9,
    1
  ]
}