{
  "ItemType": 1,
  "Id": 66,
  "Name": "$FuelCell_M",
  "DisplayCategory": 3,
  "Availability": 1,
  "ComponentStatsId": 66,
  "Faction": -1,
  "Level": 15,
  "Icon": "fueltank12",
  "Color": "#FFFFFF",
  "Layout": "1111",
  "CellType": "",
  "WeaponSlotType": "",
  "PossibleModifications": [
    9,
    1
  ]
}