{
  "ItemType": 1,
  "Id": 76,
  "Name": "$NuclearReactor_L",
  "DisplayCategory": 3,
  "Availability": 1,
  "ComponentStatsId": 76,
  "Faction": 3,
  "Level": 55,
  "Icon": "reactor2",
  "Color": "#FFDCFF",
  "Layout": "111111111",
  "CellType": "2",
  "WeaponSlotType": "",
  "PossibleModifications": [
    12,
    1
  ]
}