{
  "ItemType": 1,
  "Id": 23,
  "Name": "StasisField_L_1",
  "DisplayCategory": 1,
  "ComponentStatsId": 3,
  "Faction": 4,
  "Icon": "torpedo3",
  "Color": "#FFA0FF",
  "Layout": "110110110",
  "CellType": "4",
  "WeaponId": 78,
  "AmmunitionId": 78,
  "WeaponSlotType": "",
  "PossibleModifications": [
    13,
    8,
    21,
    6,
    16,
    5,
    2,
    7,
    1
  ]
}