{
  "ItemType": 1,
  "Id": 9,
  "Name": "$ThermalArmor_S",
  "DisplayCategory": 2,
  "Availability": 1,
  "ComponentStatsId": 15,
  "Faction": 7,
  "Level": 10,
  "Icon": "armor41",
  "Color": "#FFFFFF",
  "Layout": "1",
  "CellType": "1",
  "WeaponSlotType": "",
  "PossibleModifications": [
    1,
    3
  ]
}