{
  "ItemType": 1,
  "Id": 11,
  "Name": "$TitaniumArmor_M",
  "DisplayCategory": 2,
  "Availability": 1,
  "ComponentStatsId": 11,
  "Faction": -1,
  "Level": 20,
  "Icon": "armor12",
  "Color": "#FFFFFF",
  "Layout": "1111",
  "CellType": "1",
  "WeaponSlotType": "",
  "PossibleModifications": [
    1,
    3
  ]
}