{
  "ItemType": 1,
  "Id": 10105,
  "Name": "Vampiric Bolt",
  "DisplayCategory": 1,
  "Availability": 1,
  "ComponentStatsId": 1,
  "Faction": 9,
  "Icon": "pointdefense",
  "Color": "#FF0000",
  "Layout": "000111111",
  "CellType": "4",
  "WeaponId": 10090,
  "AmmunitionId": 10090,
  "WeaponSlotType": "L",
  "PossibleModifications": [
    16,
    5,
    2,
    7,
    1,
    6
  ]
}