{
  "ItemType": 7,
  "Id": 11,
  "Name": "$Companion_4m",
  "ModelImage": "satellite4",
  "ModelScale": 0.6,
  "Layout": "0040000400024201222100100",
  "Barrels": [
    {
      "Position": {
        "x": 1.0
      },
      "WeaponClass": "T"
    }
  ]
}