{
  "ItemType": 7,
  "Id": 17,
  "Name": "$Companion_6m",
  "ModelImage": "satellite6",
  "ModelScale": 0.6,
  "Layout": "0440044002201111",
  "Barrels": [
    {
      "Position": {
        "x": 0.9
      },
      "WeaponClass": "S"
    }
  ]
}